{
  "Resources": {
    "BookitInstanceSecurityGroup1532D7C9": {
      "Type": "AWS::EC2::SecurityGroup",
      "Properties": {
        "GroupDescription": "form-bookit/Bookit/InstanceSecurityGroup",
        "SecurityGroupEgress": [
          {
            "CidrIp": "0.0.0.0/0",
            "Description": "Allow all outbound traffic by default",
            "IpProtocol": "-1"
          }
        ],
        "SecurityGroupIngress": [
          {
            "CidrIp": "0.0.0.0/0",
            "Description": "Allow ssh from internet",
            "FromPort": 22,
            "IpProtocol": "tcp",
            "ToPort": 22
          },
          {
            "CidrIp": "0.0.0.0/0",
            "Description": "Allow http from internet",
            "FromPort": 80,
            "IpProtocol": "tcp",
            "ToPort": 80
          }
        ],
        "Tags": [
          {
            "Key": "Name",
            "Value": "BookitServer"
          }
        ],
        "VpcId": "vpc-7a9f8a1d"
      },
      "Metadata": {
        "aws:cdk:path": "form-bookit/Bookit/InstanceSecurityGroup/Resource"
      }
    },
    "BookitInstanceRole663BBC9D": {
      "Type": "AWS::IAM::Role",
      "Properties": {
        "AssumeRolePolicyDocument": {
          "Statement": [
            {
              "Action": "sts:AssumeRole",
              "Effect": "Allow",
              "Principal": {
                "Service": "ec2.amazonaws.com"
              }
            }
          ],
          "Version": "2012-10-17"
        },
        "Tags": [
          {
            "Key": "Name",
            "Value": "BookitServer"
          }
        ]
      },
      "Metadata": {
        "aws:cdk:path": "form-bookit/Bookit/InstanceRole/Resource"
      }
    },
    "BookitInstanceProfile0ECCA72C": {
      "Type": "AWS::IAM::InstanceProfile",
      "Properties": {
        "Roles": [
          {
            "Ref": "BookitInstanceRole663BBC9D"
          }
        ]
      },
      "Metadata": {
        "aws:cdk:path": "form-bookit/Bookit/InstanceProfile"
      }
    },
    "BookitB5F624FD": {
      "Type": "AWS::EC2::Instance",
      "Properties": {
        "AvailabilityZone": "ap-southeast-1a",
        "BlockDeviceMappings": [
          {
            "DeviceName": "/dev/sda1",
            "Ebs": {
              "VolumeSize": "8",
              "VolumeType": "gp2",
              "DeleteOnTermination": "true"
            }
          },
          {
            "DeviceName": "/dev/sdb",
            "Ebs": {
              "VolumeSize": "2",
              "VolumeType": "gp2",
              "DeleteOnTermination": "true"
            }
          }
        ],
        "IamInstanceProfile": {
          "Ref": "BookitInstanceProfile0ECCA72C"
        },
        "ImageId": "ami-031c72bcd53eb5306",
        "InstanceType": "t2.micro",
        "KeyName": "hailyeni",
        "SecurityGroupIds": [
          {
            "Fn::GetAtt": [
              "BookitInstanceSecurityGroup1532D7C9",
              "GroupId"
            ]
          }
        ],
        "SubnetId": "subnet-6ef50c08",
        "Tags": [
          {
            "Key": "Name",
            "Value": "BookitServer"
          }
        ],
        "UserData": {
          "Fn::Base64": "#!/bin/bash\n"
        }
      },
      "DependsOn": [
        "BookitInstanceRole663BBC9D"
      ],
      "Metadata": {
        "aws:cdk:path": "form-bookit/Bookit/Resource"
      }
    },
    "BookitELBB4C326EC": {
      "Type": "AWS::ElasticLoadBalancingV2::LoadBalancer",
      "Properties": {
        "Scheme": "internet-facing",
        "SecurityGroups": [
          {
            "Fn::GetAtt": [
              "BookitELBSecurityGroup5E9EF238",
              "GroupId"
            ]
          }
        ],
        "Subnets": [
          "subnet-6ef50c08",
          "subnet-3c43ad74",
          "subnet-b1fb4fe8"
        ],
        "Type": "application"
      },
      "Metadata": {
        "aws:cdk:path": "form-bookit/BookitELB/Resource"
      }
    },
    "BookitELBSecurityGroup5E9EF238": {
      "Type": "AWS::EC2::SecurityGroup",
      "Properties": {
        "GroupDescription": "Automatically created Security Group for ELB formbookitBookitELB2D5E7025",
        "SecurityGroupEgress": [
          {
            "CidrIp": "255.255.255.255/32",
            "Description": "Disallow all traffic",
            "FromPort": 252,
            "IpProtocol": "icmp",
            "ToPort": 86
          }
        ],
        "SecurityGroupIngress": [
          {
            "CidrIp": "0.0.0.0/0",
            "Description": "Allow from anyone on port 443",
            "FromPort": 443,
            "IpProtocol": "tcp",
            "ToPort": 443
          }
        ],
        "VpcId": "vpc-7a9f8a1d"
      },
      "Metadata": {
        "aws:cdk:path": "form-bookit/BookitELB/SecurityGroup/Resource"
      }
    },
    "BookitELBListener6D432F48": {
      "Type": "AWS::ElasticLoadBalancingV2::Listener",
      "Properties": {
        "DefaultActions": [
          {
            "TargetGroupArn": {
              "Ref": "BookitELBListenerBookitELBTargetGroup56258150"
            },
            "Type": "forward"
          }
        ],
        "LoadBalancerArn": {
          "Ref": "BookitELBB4C326EC"
        },
        "Port": 443,
        "Protocol": "HTTPS",
        "Certificates": [
          {
            "CertificateArn": "arn:aws:acm:ap-southeast-1:695188266141:certificate/2f0456ab-dbbd-4e55-a615-187951fb83c4"
          }
        ]
      },
      "Metadata": {
        "aws:cdk:path": "form-bookit/BookitELB/Listener/Resource"
      }
    },
    "BookitELBListenerBookitELBTargetGroup56258150": {
      "Type": "AWS::ElasticLoadBalancingV2::TargetGroup",
      "Properties": {
        "Port": 80,
        "Protocol": "HTTP",
        "Targets": [
          {
            "Id": {
              "Ref": "BookitB5F624FD"
            },
            "Port": 80
          }
        ],
        "TargetType": "instance",
        "VpcId": "vpc-7a9f8a1d"
      },
      "Metadata": {
        "aws:cdk:path": "form-bookit/BookitELB/Listener/BookitELBTargetGroup/Resource"
      }
    }
  },
  "Outputs": {
    "Output": {
      "Value": {
        "Fn::GetAtt": [
          "BookitB5F624FD",
          "PublicIp"
        ]
      }
    },
    "LoadBalancer": {
      "Value": {
        "Fn::GetAtt": [
          "BookitELBB4C326EC",
          "DNSName"
        ]
      },
      "Export": {
        "Name": "LoadBalancer"
      }
    }
  }
}